{
	"name": "OpenDataBio database seeds by version",
	"versions": {
		"0.7.5": {
			"location": "LocationSeed_Brazil_2018-03-22.sql",
			"taxon": "TaxonSeed_Brazil_APGIV_2018-03-22.sql"
		},
		"0.9.1-alpha1": {
			"location": "LocationSeed_BrazilUCsTIs_2022-08-12.sql",
			"taxon": "TaxonSeed_APWebOrderLevelTree_2021-08-25.sql"
		},
		"0.9.8-alpha1": {
			"location": "LocationSeed_BrazilUCsTIs_2024-02-05.sql",
			"taxon": "TaxonSeed_APWebOrderLevelTree_2021-08-25.sql"
		}
	}
}
